NAZOB	urban	forest	urban_poradi	forest_poradi	Sloupec1
Děčín	0,85%	63,45%	24	1	decin
Jeseník	0,81%	60,46%	26	2	jesenik
Vsetín	0,00%	59,90%	45	3	vsetin
Hodonín	0,00%	59,10%	57	4	hodonin
Blansko	0,00%	55,89%	56	5	blansko
Písek	0,54%	49,35%	34	6	pisek
Prachatice	0,77%	48,53%	28	7	prachatice
Jablonec nad Nisou	0,80%	41,34%	27	8	jablonec-nad-nisou
Trutnov	0,00%	40,94%	55	9	trutnov
Beroun	0,00%	40,39%	43	10	beroun
Náchod	1,42%	39,98%	14	11	nachod
Kladno	1,50%	38,22%	11	12	kladno
Břeclav	1,00%	37,66%	21	13	breclav
Rokycany	0,00%	36,23%	48	14	rokycany
Ústí nad Orlicí	0,70%	35,85%	32	15	usti-nad-orlici
Sokolov	1,30%	35,55%	17	16	sokolov
Tábor	1,31%	28,35%	16	17	tabor
Semily	0,00%	27,63%	53	18	semily
Chomutov	4,25%	27,40%	4	19	chomutov
Frýdek-Místek	1,97%	27,00%	10	20	frydek-mistek
Český Krumlov	0,00%	26,69%	46	21	cesky-krumlov
Šumperk	0,00%	24,91%	42	22	sumperk
Benešov	3,76%	24,57%	5	23	benesov
Vyškov	0,89%	24,08%	23	24	vyskov
Česká Lípa	0,48%	23,87%	35	25	ceska-lipa
Žďár nad Sázavou	0,00%	22,89%	60	26	zdar-nad-sazavou
Nový Jičín	0,69%	21,79%	33	27	novy-jicin
Třebíč	0,74%	21,01%	31	28	trebic
Pelhřimov	0,38%	20,79%	38	29	pelhrimov
Klatovy	0,76%	19,71%	30	30	klatovy
Tachov	0,77%	19,29%	29	31	tachov
Rychnov nad Kněžnou	0,00%	19,23%	52	32	rychnov-nad-kneznou
Cheb	3,02%	18,98%	6	33	cheb
Most	6,09%	18,89%	1	34	most
Karviná	1,48%	18,53%	12	35	karvina
Znojmo	0,00%	16,50%	59	36	znojmo
Kroměříž	2,29%	16,39%	9	37	kromeriz
Bruntál	0,00%	16,18%	41	38	bruntal
Strakonice	1,47%	15,27%	13	39	strakonice
Teplice	4,82%	14,80%	3	40	teplice
Domažlice	0,00%	14,09%	47	41	domazlice
Jindřichův Hradec	0,82%	13,14%	25	42	jindrichuv-hradec
Příbram	1,09%	12,69%	20	43	pribram
Havlíčkův Brod	0,47%	12,47%	36	44	havlickuv-brod
Rakovník	1,24%	12,20%	19	45	rakovnik
Mladá Boleslav	2,41%	11,29%	8	46	mlada-boleslav
Svitavy	0,00%	10,99%	54	47	svitavy
Havířov	1,25%	10,32%	18	48	havirov
Nymburk	2,66%	10,28%	7	49	nymburk
Přerov	0,90%	10,08%	22	50	prerov
Kolín	0,23%	8,61%	39	51	kolin
Mělník	1,40%	8,49%	15	52	melnik
Prostějov	5,69%	7,14%	2	53	prostejov
Kutná Hora	0,00%	6,71%	44	54	kutna-hora
Jičín	0,07%	4,74%	40	55	jicin
Opava	0,45%	4,73%	37	56	opava
Chrudim	0,00%	3,97%	51	57	chrudim
Litoměřice	0,00%	3,34%	49	58	litomerice
Louny	0,00%	2,67%	50	59	louny
Uherské Hradiště	0,00%	2,25%	58	60	uherske-hradiste
